Análise Preditiva da Dispneia em sobreviventes da COVID-19
…
collect_metrics(dispneia_lr_tune_grid)

## # A tibble: 80 x 7
##     penalty .metric     .estimator  mean     n std_err .config              
##       <dbl> <chr>       <chr>      <dbl> <int>   <dbl> <chr>                
##  1 0.0001   accuracy    binary     0.742     5  0.0117 Preprocessor1_Model01
##  2 0.0001   roc_auc     binary     0.780     5  0.0163 Preprocessor1_Model01
##  3 0.0001   sensitivity binary     0.851     5  0.0125 Preprocessor1_Model01
##  4 0.0001   specificity binary     0.48      5  0.0455 Preprocessor1_Model01
##  5 0.000183 accuracy    binary     0.742     5  0.0117 Preprocessor1_Model02
##  6 0.000183 roc_auc     binary     0.781     5  0.0164 Preprocessor1_Model02
##  7 0.000183 sensitivity binary     0.851     5  0.0125 Preprocessor1_Model02
##  8 0.000183 specificity binary     0.48      5  0.0455 Preprocessor1_Model02
##  9 0.000336 accuracy    binary     0.740     5  0.0123 Preprocessor1_Model03
## 10 0.000336 roc_auc     binary     0.782     5  0.0165 Preprocessor1_Model03
## # ... with 70 more rows
…
